# This a simple magnetic filed options file

# Command: M - defines a magnetic filed with numeric ID
# Example - the next command defines a magnetic filed with ID=0
#           the data for the field map is read from file 'mf1.dat'
M 0 mf1.dat
M 1 mf2.dat

# Command: P - defines the position of a field map
# Input: P ID X Y Z
# X, Y, Z is the position of the corner of the magnetic field grid with smallest coordinates
P 0 -50 -50 5 
P 0 0 0 5 
P 1 -50 0 5 
P 1 0 -50 5 
